{
  "photos": {
    "page": 250,
    "pages": 2423,
    "perpage": 50,
    "total": "121111",
    "photo": [
      {
        "id": "50496130892",
        "owner": "29954948@N06",
        "secret": "9573bd201f",
        "server": "65535",
        "farm": 66,
        "title": "Luna & Zuice in the light",
        "ispublic": 1,
        "isfriend": 0,
        "isfamily": 0,
        "url_s": "https:\/\/live.staticflickr.com\/65535\/50496130892_9573bd201f_m.jpg",
        "height_s": 240,
        "width_s": 164
      },
      {
        "id": "50495260988",
        "owner": "35042029@N03",
        "secret": "1745a48c05",
        "server": "65535",
        "farm": 66,
        "title": "It's A Dogs Life",
        "ispublic": 1,
        "isfriend": 0,
        "isfamily": 0,
        "url_s": "https:\/\/live.staticflickr.com\/65535\/50495260988_1745a48c05_m.jpg",
        "height_s": 154,
        "width_s": 240
      },
      {
        "id": "50495259013",
        "owner": "37863279@N04",
        "secret": "531c334eb3",
        "server": "65535",
        "farm": 66,
        "title": "2020-10-16",
        "ispublic": 1,
        "isfriend": 0,
        "isfamily": 0,
        "url_s": "https:\/\/live.staticflickr.com\/65535\/50495259013_531c334eb3_m.jpg",
        "height_s": 240,
        "width_s": 180
      },
      {
        "id": "50495248658",
        "owner": "53335906@N03",
        "secret": "c40fd7bb91",
        "server": "65535",
        "farm": 66,
        "title": "Muddle In A Puddle",
        "ispublic": 1,
        "isfriend": 0,
        "isfamily": 0,
        "url_s": "https:\/\/live.staticflickr.com\/65535\/50495248658_c40fd7bb91_m.jpg",
        "height_s": 120,
        "width_s": 240
      },
      {
        "id": "50495235383",
        "owner": "160912192@N05",
        "secret": "9a5e0b2bd2",
        "server": "65535",
        "farm": 66,
        "title": "A buddy",
        "ispublic": 1,
        "isfriend": 0,
        "isfamily": 0,
        "url_s": "https:\/\/live.staticflickr.com\/65535\/50495235383_9a5e0b2bd2_m.jpg",
        "height_s": 180,
        "width_s": 240
      },
      {
        "id": "50494984268",
        "owner": "189768902@N07",
        "secret": "b51a1d6eb5",
        "server": "65535",
        "farm": 66,
        "title": "Magnificent Melody",
        "ispublic": 1,
        "isfriend": 0,
        "isfamily": 0,
        "url_s": "https:\/\/live.staticflickr.com\/65535\/50494984268_b51a1d6eb5_m.jpg",
        "height_s": 160,
        "width_s": 240
      },
      {
        "id": "50496068727",
        "owner": "53335906@N03",
        "secret": "3afdd9f7ac",
        "server": "65535",
        "farm": 66,
        "title": "Sunset Storm Is Coming",
        "ispublic": 1,
        "isfriend": 0,
        "isfamily": 0,
        "url_s": "https:\/\/live.staticflickr.com\/65535\/50496068727_3afdd9f7ac_m.jpg",
        "height_s": 111,
        "width_s": 240
      },
      {
        "id": "50495893686",
        "owner": "190107698@N05",
        "secret": "b464488009",
        "server": "65535",
        "farm": 66,
        "title": "Nice I Like Motorcycles And Dogs And Maybe 3 People Shirt",
        "ispublic": 1,
        "isfriend": 0,
        "isfamily": 0,
        "url_s": "https:\/\/live.staticflickr.com\/65535\/50495893686_b464488009_m.jpg",
        "height_s": 240,
        "width_s": 240
      },
      {
        "id": "50495140333",
        "owner": "32357038@N08",
        "secret": "9ac30923ab",
        "server": "65535",
        "farm": 66,
        "title": "2020   10-10",
        "ispublic": 1,
        "isfriend": 0,
        "isfamily": 0,
        "url_s": "https:\/\/live.staticflickr.com\/65535\/50495140333_9ac30923ab_m.jpg",
        "height_s": 216,
        "width_s": 240
      },
      {
        "id": "50495966062",
        "owner": "160961745@N05",
        "secret": "aa54a530cd",
        "server": "65535",
        "farm": 66,
        "title": "Shop dogs!",
        "ispublic": 1,
        "isfriend": 0,
        "isfamily": 0,
        "url_s": "https:\/\/live.staticflickr.com\/65535\/50495966062_aa54a530cd_m.jpg",
        "height_s": 180,
        "width_s": 240
      },
      {
        "id": "50495103613",
        "owner": "160961745@N05",
        "secret": "62af96fc54",
        "server": "65535",
        "farm": 66,
        "title": "Shop dogs!",
        "ispublic": 1,
        "isfriend": 0,
        "isfamily": 0,
        "url_s": "https:\/\/live.staticflickr.com\/65535\/50495103613_62af96fc54_m.jpg",
        "height_s": 240,
        "width_s": 180
      },
      {
        "id": "50495965982",
        "owner": "160961745@N05",
        "secret": "4490b7c7a3",
        "server": "65535",
        "farm": 66,
        "title": "Shop dogs!",
        "ispublic": 1,
        "isfriend": 0,
        "isfamily": 0,
        "url_s": "https:\/\/live.staticflickr.com\/65535\/50495965982_4490b7c7a3_m.jpg",
        "height_s": 240,
        "width_s": 180
      },
      {
        "id": "50495809186",
        "owner": "160961745@N05",
        "secret": "051f2f5e68",
        "server": "65535",
        "farm": 66,
        "title": "Shop dogs!",
        "ispublic": 1,
        "isfriend": 0,
        "isfamily": 0,
        "url_s": "https:\/\/live.staticflickr.com\/65535\/50495809186_051f2f5e68_m.jpg",
        "height_s": 180,
        "width_s": 240
      },
      {
        "id": "50495930122",
        "owner": "37858587@N05",
        "secret": "5484a8642c",
        "server": "65535",
        "farm": 66,
        "title": "Tony Moradian 201016",
        "ispublic": 1,
        "isfriend": 0,
        "isfamily": 0,
        "url_s": "https:\/\/live.staticflickr.com\/65535\/50495930122_5484a8642c_m.jpg",
        "height_s": 240,
        "width_s": 180
      },
      {
        "id": "50495737036",
        "owner": "41758966@N05",
        "secret": "3060c2e835",
        "server": "65535",
        "farm": 66,
        "title": "pointing_dogs-1",
        "ispublic": 1,
        "isfriend": 0,
        "isfamily": 0,
        "url_s": "https:\/\/live.staticflickr.com\/65535\/50495737036_3060c2e835_m.jpg",
        "height_s": 240,
        "width_s": 160
      },
      {
        "id": "50495893452",
        "owner": "41758966@N05",
        "secret": "65ed3d5e5b",
        "server": "65535",
        "farm": 66,
        "title": "pointing_dogs-4",
        "ispublic": 1,
        "isfriend": 0,
        "isfamily": 0,
        "url_s": "https:\/\/live.staticflickr.com\/65535\/50495893452_65ed3d5e5b_m.jpg",
        "height_s": 160,
        "width_s": 240
      },
      {
        "id": "50495735671",
        "owner": "41758966@N05",
        "secret": "1bc4de745b",
        "server": "65535",
        "farm": 66,
        "title": "pointing_dogs-6",
        "ispublic": 1,
        "isfriend": 0,
        "isfamily": 0,
        "url_s": "https:\/\/live.staticflickr.com\/65535\/50495735671_1bc4de745b_m.jpg",
        "height_s": 160,
        "width_s": 240
      },
      {
        "id": "50495734741",
        "owner": "41758966@N05",
        "secret": "87c6064235",
        "server": "65535",
        "farm": 66,
        "title": "pointing_dogs-7",
        "ispublic": 1,
        "isfriend": 0,
        "isfamily": 0,
        "url_s": "https:\/\/live.staticflickr.com\/65535\/50495734741_87c6064235_m.jpg",
        "height_s": 240,
        "width_s": 160
      },
      {
        "id": "50495028833",
        "owner": "41758966@N05",
        "secret": "77f4a357aa",
        "server": "65535",
        "farm": 66,
        "title": "pointing_dogs-8",
        "ispublic": 1,
        "isfriend": 0,
        "isfamily": 0,
        "url_s": "https:\/\/live.staticflickr.com\/65535\/50495028833_77f4a357aa_m.jpg",
        "height_s": 160,
        "width_s": 240
      },
      {
        "id": "50495028033",
        "owner": "41758966@N05",
        "secret": "caf0a6eef6",
        "server": "65535",
        "farm": 66,
        "title": "pointing_dogs-10",
        "ispublic": 1,
        "isfriend": 0,
        "isfamily": 0,
        "url_s": "https:\/\/live.staticflickr.com\/65535\/50495028033_caf0a6eef6_m.jpg",
        "height_s": 240,
        "width_s": 160
      },
      {
        "id": "50495027048",
        "owner": "41758966@N05",
        "secret": "ee471d9f09",
        "server": "65535",
        "farm": 66,
        "title": "pointing_dogs-11",
        "ispublic": 1,
        "isfriend": 0,
        "isfamily": 0,
        "url_s": "https:\/\/live.staticflickr.com\/65535\/50495027048_ee471d9f09_m.jpg",
        "height_s": 160,
        "width_s": 240
      },
      {
        "id": "50495881342",
        "owner": "190657647@N03",
        "secret": "e529656e7a",
        "server": "65535",
        "farm": 66,
        "title": "His Masters Voice.jpg2",
        "ispublic": 1,
        "isfriend": 0,
        "isfamily": 0,
        "url_s": "https:\/\/live.staticflickr.com\/65535\/50495881342_e529656e7a_m.jpg",
        "height_s": 160,
        "width_s": 240
      },
      {
        "id": "50494983183",
        "owner": "44182378@N03",
        "secret": "b0c7b83ed4",
        "server": "65535",
        "farm": 66,
        "title": "DOGS DAYS OF SUMMER  (1)",
        "ispublic": 1,
        "isfriend": 0,
        "isfamily": 0,
        "url_s": "https:\/\/live.staticflickr.com\/65535\/50494983183_b0c7b83ed4_m.jpg",
        "height_s": 150,
        "width_s": 240
      },
      {
        "id": "50495837237",
        "owner": "64012946@N04",
        "secret": "ed9dc0bd7a",
        "server": "65535",
        "farm": 66,
        "title": "Hell Hounds",
        "ispublic": 1,
        "isfriend": 0,
        "isfamily": 0,
        "url_s": "https:\/\/live.staticflickr.com\/65535\/50495837237_ed9dc0bd7a_m.jpg",
        "height_s": 166,
        "width_s": 240
      },
      {
        "id": "50494891953",
        "owner": "68815248@N05",
        "secret": "86eeaa6411",
        "server": "65535",
        "farm": 66,
        "title": "G1398",
        "ispublic": 1,
        "isfriend": 0,
        "isfamily": 0,
        "url_s": "https:\/\/live.staticflickr.com\/65535\/50494891953_86eeaa6411_m.jpg",
        "height_s": 240,
        "width_s": 180
      },
      {
        "id": "50495530181",
        "owner": "7790656@N06",
        "secret": "04bbf76a20",
        "server": "65535",
        "farm": 66,
        "title": "Sedum - 10\/12\/20",
        "ispublic": 1,
        "isfriend": 0,
        "isfamily": 0,
        "url_s": "https:\/\/live.staticflickr.com\/65535\/50495530181_04bbf76a20_m.jpg",
        "height_s": 131,
        "width_s": 240
      },
      {
        "id": "50494823093",
        "owner": "7790656@N06",
        "secret": "5c38e2e77a",
        "server": "65535",
        "farm": 66,
        "title": "Digger - 10\/12\/20",
        "ispublic": 1,
        "isfriend": 0,
        "isfamily": 0,
        "url_s": "https:\/\/live.staticflickr.com\/65535\/50494823093_5c38e2e77a_m.jpg",
        "height_s": 160,
        "width_s": 240
      },
      {
        "id": "50495685562",
        "owner": "7790656@N06",
        "secret": "b69300a0bf",
        "server": "65535",
        "farm": 66,
        "title": "Sedum - 10\/12\/20",
        "ispublic": 1,
        "isfriend": 0,
        "isfamily": 0,
        "url_s": "https:\/\/live.staticflickr.com\/65535\/50495685562_b69300a0bf_m.jpg",
        "height_s": 171,
        "width_s": 240
      },
      {
        "id": "50495517101",
        "owner": "7790656@N06",
        "secret": "0b16d9546c",
        "server": "65535",
        "farm": 66,
        "title": "Digger - 10\/12\/20",
        "ispublic": 1,
        "isfriend": 0,
        "isfamily": 0,
        "url_s": "https:\/\/live.staticflickr.com\/65535\/50495517101_0b16d9546c_m.jpg",
        "height_s": 160,
        "width_s": 240
      },
      {
        "id": "50495673882",
        "owner": "7790656@N06",
        "secret": "9d9de0c497",
        "server": "65535",
        "farm": 66,
        "title": "Sedum - 10\/12\/20",
        "ispublic": 1,
        "isfriend": 0,
        "isfamily": 0,
        "url_s": "https:\/\/live.staticflickr.com\/65535\/50495673882_9d9de0c497_m.jpg",
        "height_s": 135,
        "width_s": 240
      },
      {
        "id": "50494809628",
        "owner": "7790656@N06",
        "secret": "3f05d77625",
        "server": "65535",
        "farm": 66,
        "title": "Sedum & Diggs - 10\/12\/20",
        "ispublic": 1,
        "isfriend": 0,
        "isfamily": 0,
        "url_s": "https:\/\/live.staticflickr.com\/65535\/50494809628_3f05d77625_m.jpg",
        "height_s": 126,
        "width_s": 240
      },
      {
        "id": "50495673487",
        "owner": "7790656@N06",
        "secret": "358768aa65",
        "server": "65535",
        "farm": 66,
        "title": "Digger - 10\/12\/20",
        "ispublic": 1,
        "isfriend": 0,
        "isfamily": 0,
        "url_s": "https:\/\/live.staticflickr.com\/65535\/50495673487_358768aa65_m.jpg",
        "height_s": 171,
        "width_s": 240
      },
      {
        "id": "50495673087",
        "owner": "7790656@N06",
        "secret": "4bf0df6a46",
        "server": "65535",
        "farm": 66,
        "title": "Digger - 10\/12\/20",
        "ispublic": 1,
        "isfriend": 0,
        "isfamily": 0,
        "url_s": "https:\/\/live.staticflickr.com\/65535\/50495673087_4bf0df6a46_m.jpg",
        "height_s": 160,
        "width_s": 240
      },
      {
        "id": "50494808798",
        "owner": "7790656@N06",
        "secret": "e934e966c5",
        "server": "65535",
        "farm": 66,
        "title": "Digger - 10\/12\/20",
        "ispublic": 1,
        "isfriend": 0,
        "isfamily": 0,
        "url_s": "https:\/\/live.staticflickr.com\/65535\/50494808798_e934e966c5_m.jpg",
        "height_s": 160,
        "width_s": 240
      },
      {
        "id": "50495515986",
        "owner": "7790656@N06",
        "secret": "4043c18347",
        "server": "65535",
        "farm": 66,
        "title": "Digger & Sedum - 10\/12\/20",
        "ispublic": 1,
        "isfriend": 0,
        "isfamily": 0,
        "url_s": "https:\/\/live.staticflickr.com\/65535\/50495515986_4043c18347_m.jpg",
        "height_s": 150,
        "width_s": 240
      },
      {
        "id": "50494808503",
        "owner": "7790656@N06",
        "secret": "e1725de99c",
        "server": "65535",
        "farm": 66,
        "title": "Sedum - 10\/12\/20",
        "ispublic": 1,
        "isfriend": 0,
        "isfamily": 0,
        "url_s": "https:\/\/live.staticflickr.com\/65535\/50494808503_e1725de99c_m.jpg",
        "height_s": 160,
        "width_s": 240
      },
      {
        "id": "50494808393",
        "owner": "7790656@N06",
        "secret": "5c427f3aba",
        "server": "65535",
        "farm": 66,
        "title": "Sedum - 10\/12\/20",
        "ispublic": 1,
        "isfriend": 0,
        "isfamily": 0,
        "url_s": "https:\/\/live.staticflickr.com\/65535\/50494808393_5c427f3aba_m.jpg",
        "height_s": 141,
        "width_s": 240
      },
      {
        "id": "50495490246",
        "owner": "7790656@N06",
        "secret": "aedb81dae8",
        "server": "65535",
        "farm": 66,
        "title": "Sedum - 10\/12\/20",
        "ispublic": 1,
        "isfriend": 0,
        "isfamily": 0,
        "url_s": "https:\/\/live.staticflickr.com\/65535\/50495490246_aedb81dae8_m.jpg",
        "height_s": 160,
        "width_s": 240
      },
      {
        "id": "44111216010",
        "owner": "157619092@N06",
        "secret": "ef2fc37e7e",
        "server": "4915",
        "farm": 5,
        "title": "'Beast from the East'  Storm Emma",
        "ispublic": 1,
        "isfriend": 0,
        "isfamily": 0,
        "url_s": "https:\/\/live.staticflickr.com\/4915\/44111216010_ef2fc37e7e_m.jpg",
        "height_s": 135,
        "width_s": 240
      },
      {
        "id": "50495490996",
        "owner": "37996583933@N01",
        "secret": "56577db23d",
        "server": "65535",
        "farm": 66,
        "title": "Leashed Dogs Only",
        "ispublic": 1,
        "isfriend": 0,
        "isfamily": 0,
        "url_s": "https:\/\/live.staticflickr.com\/65535\/50495490996_56577db23d_m.jpg",
        "height_s": 240,
        "width_s": 240
      },
      {
        "id": "50494769663",
        "owner": "90216083@N03",
        "secret": "f78b2b7547",
        "server": "65535",
        "farm": 66,
        "title": "Incheon Gyeyang-gu Gyeyang-san illegal dog farm",
        "ispublic": 1,
        "isfriend": 0,
        "isfamily": 0,
        "url_s": "https:\/\/live.staticflickr.com\/65535\/50494769663_f78b2b7547_m.jpg",
        "height_s": 240,
        "width_s": 240
      },
      {
        "id": "50495634037",
        "owner": "90216083@N03",
        "secret": "0178acf3c0",
        "server": "65535",
        "farm": 66,
        "title": "Incheon Gyeyang-gu Gyeyang-san illegal dog farm",
        "ispublic": 1,
        "isfriend": 0,
        "isfamily": 0,
        "url_s": "https:\/\/live.staticflickr.com\/65535\/50495634037_0178acf3c0_m.jpg",
        "height_s": 180,
        "width_s": 240
      },
      {
        "id": "50495569797",
        "owner": "190077440@N06",
        "secret": "2309326fd3",
        "server": "65535",
        "farm": 66,
        "title": "Mein Sonnenschein an jedem Regentag \u2764",
        "ispublic": 1,
        "isfriend": 0,
        "isfamily": 0,
        "url_s": "https:\/\/live.staticflickr.com\/65535\/50495569797_2309326fd3_m.jpg",
        "height_s": 240,
        "width_s": 192
      },
      {
        "id": "50495561352",
        "owner": "160894498@N03",
        "secret": "c414ffb49f",
        "server": "65535",
        "farm": 66,
        "title": "Dogs light...",
        "ispublic": 1,
        "isfriend": 0,
        "isfamily": 0,
        "url_s": "https:\/\/live.staticflickr.com\/65535\/50495561352_c414ffb49f_m.jpg",
        "height_s": 240,
        "width_s": 160
      },
      {
        "id": "50495349786",
        "owner": "37955906@N07",
        "secret": "5c98080708",
        "server": "65535",
        "farm": 66,
        "title": "A lovely view from Headon Warren in the West Wight where we walk our dogs.",
        "ispublic": 1,
        "isfriend": 0,
        "isfamily": 0,
        "url_s": "https:\/\/live.staticflickr.com\/65535\/50495349786_5c98080708_m.jpg",
        "height_s": 180,
        "width_s": 240
      },
      {
        "id": "18945653962",
        "owner": "132796638@N05",
        "secret": "066c463fc0",
        "server": "65535",
        "farm": 66,
        "title": "\u2767",
        "ispublic": 1,
        "isfriend": 0,
        "isfamily": 0,
        "url_s": "https:\/\/live.staticflickr.com\/65535\/18945653962_066c463fc0_m.jpg",
        "height_s": 161,
        "width_s": 240
      },
      {
        "id": "50494581928",
        "owner": "119760755@N07",
        "secret": "8e56e788d9",
        "server": "65535",
        "farm": 66,
        "title": "Schlafstellung von Papa\u00fapa die Zweite * Sleeping position of Papa\u00fapa the second * Posici\u00f3n de sue\u00f1o de Papa\u00fapa el segundo *  .   P1470445-001",
        "ispublic": 1,
        "isfriend": 0,
        "isfamily": 0,
        "url_s": "https:\/\/live.staticflickr.com\/65535\/50494581928_8e56e788d9_m.jpg",
        "height_s": 217,
        "width_s": 240
      },
      {
        "id": "50495287411",
        "owner": "119760755@N07",
        "secret": "4bb73f6983",
        "server": "65535",
        "farm": 66,
        "title": "Schlafstellung von Papa\u00fapa die Erste * Sleeping position of Papa\u00fapa the first * Posici\u00f3n de sue\u00f1o de Papa\u00fapa el primero *  .  P1470451-001",
        "ispublic": 1,
        "isfriend": 0,
        "isfamily": 0,
        "url_s": "https:\/\/live.staticflickr.com\/65535\/50495287411_4bb73f6983_m.jpg",
        "height_s": 183,
        "width_s": 240
      },
      {
        "id": "50495203986",
        "owner": "29775880@N05",
        "secret": "b266b83f04",
        "server": "65535",
        "farm": 66,
        "title": "Oct 16 - Not for dogs",
        "ispublic": 1,
        "isfriend": 0,
        "isfamily": 0,
        "url_s": "https:\/\/live.staticflickr.com\/65535\/50495203986_b266b83f04_m.jpg",
        "height_s": 160,
        "width_s": 240
      },
      {
        "id": "50495349827",
        "owner": "190396621@N07",
        "secret": "cdb197897c",
        "server": "65535",
        "farm": 66,
        "title": "Rob Georg \u201cThis Old House\u201d now available to AC radio",
        "ispublic": 1,
        "isfriend": 0,
        "isfamily": 0,
        "url_s": "https:\/\/live.staticflickr.com\/65535\/50495349827_cdb197897c_m.jpg",
        "height_s": 240,
        "width_s": 240
      }
    ]
  },
  "stat": "ok"
}